431 Project B Study 1 Demonstration
…
medium_r
Cat-3
Movies, TV, Other: Which medium do you use most to get your fictional stories (containing plot)?

fiction_r
Cat-4
Comedy, Drama, Fantasy/SF, Other: Which type of fictional stories do you consume most?

Now, I’ll prove that sur15 is a tibble by printing it.

sur15

# A tibble: 53 x 12
    s_id r_pre r_now comfort_431 height_r weight_r   bmi r_before english
   <dbl> <dbl> <dbl>       <dbl>    <dbl>    <dbl> <dbl> <fct>    <fct>  
 1   501     0    70          90     68.1      162  24.6 Yes      No     
 2   502     0    70          50     67        151  23.6 No       Yes    
 3   503     0    10          70     62.5      127  22.9 No       Yes    
 4   504    20    80          50     NA        140  NA   Yes      No     
 5   505    80    90          85     70        178  25.5 Yes      Yes    
 6   506     0    50          80     73        145  19.1 No       Yes    
 7   507    50    50          50     74        320  41.1 Yes      Yes    
 8   508    60    75          80     70        165  23.7 Yes      No     
 9   509     0    50          75     64        135  23.2 No       Yes    
10   510    30    30          50     69        155  22.9 No       Yes    
# ... with 43 more rows, and 3 more variables: grades_r <fct>, medium_r <fct>,
#   fiction_r <fct>
…
